other;asdad;sadasd;;asda;1234567Aa;;asd;;Burgenland;;
other;sd;asd;;asdasd;;;;;Burgenland;;
other;asdasd;asdasd;;asdasd;;;;;Burgenland;;
other;asdasd;asdasd;;asdasd;;;;;Burgenland;;
other;asdasd;asdad;asdsad;asdsad;;;;;Burgenland;;
female;asdsad;asdsad;asddsadas;;;;;;Burgenland;;
female;asdsad;asdsad;asddsadas;;;;;;Burgenland;;
male;1221212121;asads213213;;ssfdafsda;;;;;Burgenland;;
male;1221212121;asads213213;;ssfdafsda;;;;;Burgenland;;
other;asdasd;asdasd;;asda;;;;;Burgenland;;
other;asdasd;asdasd;;;;;;;Burgenland;;
other;213123;123123;;testtest;1234567Aa;;!"§"!§ASD;;Burgenland;;
male;Adrian;Voicescu;;voicescu.a@yahoo.com;$2y$10$6vrVj5eXzaZ8JGTQHAO11ObzKWpLsWPdYvkDPn6aEKDe/9Ak2.FsW;Astacj;Grossarl;5611;Salzburg;4300421412;
other;asd;asd;;asdas;$2y$10$NsG/gLJIF7A9SJuUTT0pBuYnUwtoaXfklLWYnn0EadrJJBTyHTPpa;;asd;;Burgenland;;
other;asd;asd;;asdas;$2y$10$V72tZ2czYhZXBf7zGHxALeBxIxOugo./LYY.K2VDJ408UwBEsRneC;;asd;;Burgenland;;
other;asd;asd;;asdas;$2y$10$Bi4gd1IN/YrJOpFJI13xcuS0HiaBtqrJUybXASMboyTsPiS5s1sHe;;asd;;Burgenland;;
other;asd;asdas;;asdas;$2y$10$Ov571201DPTt8gIkyEwDse3vcleDueROzt9wcGsgtvYhR5fFbIEMO;;asd;;Burgenland;;
other;asdasd;adsasd;;asdsad;$2y$10$WL3/hvW65Kv5wiPuxFdGsOPH0RieEFL6Qd1hFZoYcsS0LIG7zQkeK;;sad;;Burgenland;;
other;asd;asd;asd;asd;$2y$10$3MwghnkM7E40Zrqm1QZXAOni0wa29GOqZfl1cXiPh2XLyHoOvSzDG;;asd;;Burgenland;;
female;asdasd;asdasd;;asdasd;$2y$10$MIssyHAYhHZ8XS7DwC1wQOcOHdruztLIX0C6CTpl7pljlTIc5XNhq;;asdsa;;Burgenland;;
other;asdasd;asdasd;;asdsad;$2y$10$d2FWMPeQjAgu08WvqMHIQOh1xzhv.kk1ykLmxAng731HBP4tVY5XK;;dsadsa;;Burgenland;;
other;asdasd;asdasd;;asdsad;$2y$10$MumJRWU/6W6lF9Z0uIr.jOH9nSxf.rO26iaX8ldI0LBt5GiVuxcn.;;dsadsa;;Burgenland;;
other;asdasd;asdasd;;asdsad;$2y$10$HJjguW7r4k3qNa6XSrbe/eqI2oPQAmLoqETnGTRTFQNI4s1D8vJdW;;dsadsa;;Burgenland;;
other;asdasd;asdasd;;asdsad;$2y$10$hnkHyO6SjgYehCRT9JMktelLxS3naQsj7Uw1yBTXCUvkTqsoAE4xC;;dsadsa;;Burgenland;;
other;asdasd;asdasd;;asdsad;$2y$10$kH5F76H0sWRDtBnh9.PR1.SSk9s1B.7Hm38rNSQ4DxMJMrSuBDFrO;;dsadsa;;Burgenland;;
other;yxc;yxc;;voicescu.a@yahoo.com;$2y$10$yjRSuc6BB8F28wriHtmeVuRVsuEkKFzSehdM7VFgHATqz0T4sfeQW;Astacj;Grossarl;5611;Salzburg;4300421412;
other;Adrian;Voicescu;;voicescu.a@yahoo.com;$2y$10$5kPhvBryiGDt1FDrDkbviu5N9MN7o6DbmtsbkNlziEYCTRYBlZb.m;Astacj;Grossarl;5611;Salzburg;4300421412;
other;Adrian;Voicescu;;voicescu.a@yahoo.com;$2y$10$nFZ0rJz5c8cRvkaZaIh9t.xaMV3n/eyDxeOzkR9kAug1laQF.WasO;Astacj;Grossarl;5611;Salzburg;4300421412;
other;Adrian;Voicescu;;voicescu.a@yahoo.com;$2y$10$jNZ5W60/nlgR2IGA6nFC1OKDwqLUFDxEVGkNSBBsS73fpnwawgN0y;Astacj;Grossarl;5611;Salzburg;4300421412;
other;Adrian;Voicescu;;voicescu.a@yahoo.com;$2y$10$xCN6juJMvMt8gC9c712jCumPIpMNxwKxixRJICBUNmcs1Uwr9vxAC;Astacj;Grossarl;5611;Salzburg;4300421412;
other;Adrian;Voicescu;;voicescu.a@yahoo.com;$2y$10$54lWZ6zfKO6SgHq9HbTbAulhZrWf/IozNURglWonFKEQWn.y/gm.e;Astacj;Grossarl;5611;Salzburg;4300421412;
male;Adrian;Voicescu;;voicescu.a@yahoo.com;$2y$10$DbwUSOTm9Zf2.MYghk890uuY0fP1FFCz8harvyZQwjQTcgM.J4og2;Astacj;Grossarl;5611;Salzburg;4300421412;
female;yxc;yxc;;voicescu.a@yahoo.com;$2y$10$a5U.UP7vM5zvmlrXsdxdbuwcgaZFxaamnn0gnzZ8NM.mi85kDR/Re;Astacj;Grossarl;5611;Salzburg;4300421412;
female;yxc;yxc;;voicescu.a@yahoo.com;$2y$10$Mnoc2F2kfduFYX/WEAgTS.l74eidvf90bnVrlN07/BBseGieH97AO;Astacj;Grossarl;5611;Salzburg;4300421412;
other;yxc;yxc;;voicescu.a@yahoo.com;$2y$10$ch1LN7w0SK0i9B6Dzw8HJeEnQZ/CZyjiC/MDK8VcEV9jtEYsqemU2;Astacj;Grossarl;5611;Salzburg;4300421412;
other;yxc;yxc;;voicescu.a@yahoo.com;$2y$10$nmIomc8ggREQhb5tguwWZ.On7/BA1QoiguYeE27mmYBw6SNqCv77C;Astacj;Grossarl;5611;Salzburg;4300421412;
other;yxc;yxc;;voicescu.a@yahoo.com;$2y$10$qSEe7K/pJO.499HGIzBAo.WLh/YGW0AVfXe4GBqSprYmnCnw683J6;Astacj;Grossarl;5611;Salzburg;4300421412;
other;yxc;yxc;;voicescu.a@yahoo.com;$2y$10$EUcoibf9ASm8VxymYwZN1eB1vjggMqy/JotHWGhSRuQ2aDH7SuPzK;Astacj;Grossarl;5611;Salzburg;4300421412;
other;yxc;yxc;;voicescu.a@yahoo.com;$2y$10$./XXdhVORs412SEnN2Jjw.ImHVrCGpvn9Fn1wUfvRTY0G8QXMfMGe;Astacj;Grossarl;5611;Salzburg;4300421412;
